{
  "id": "6rqhFgbbKwnb9MLmUQDhG6",
  "name": "Playlist 1",
  "description": "Description 1",
  "public": true,
  "collaborative": false,
  "href": "https://api.spotify.com/v1/users/mikhail/playlists/6rqhFgbbKwnb9MLmUQDhG6"
}